Text Mining for Petroleum Engineering: Modern Techniques for Paper Research
…
library(petro.One)

my_url <- make_search_url(query = "technical potential", 
                           how = "all")
num_papers <- get_papers_count(my_url)
# [1] 132

What the package petro.One does is connecting with OnePetro and submit the text technical potential to the website, specifying that we want papers that only have those two words together with the parameter how. We could read the number of papers from the object num_papers.

We read the titles of the papers, and the rest of the metadata, and put that in a dataframe df. So, we get 132 papers as it is shown below.

df <- read_multidoc(my_url)
df

# A tibble: 132 x 6
                                                                    title_data
                                                                         <chr>
 1 Reserve Technical Potential Management System: Key in Rehabilitation of Mat
 2 Technical Potential: A Highly Effective Tool for National Oil Companies to 
 3 Using Business Intelligent Tool to Gain Insight into Well Integrity, Survei
 4 Managed Pressure Drilling With Solids-Free Drilling Fluid Provides Cost-Eff
 5                           Optimizing Number of Fractures in Horizontal Well
 6 Intelligent Automation of Mature Field Development Process: Case Study From
 7 Staying Ahead through Built-in Automated Approach for Well Modelling in Gas
 8                                   The Models of Sea Waves Energy Converters
 9   The First Subsea Completion by an Operator in KN Field, Offshore Malaysia
10         Surfactant Flooding: Technical and Economical Conditions To Succeed
# ... with 122 more rows, and 5 more variables: paper_id <chr>,
#   source <chr>, type <chr>, year <int>, author1_data <chr>
…
tdm.matrix <- as.matrix(paper.tdm)
tdm.rs <- sort(rowSums(tdm.matrix), decreasing = TRUE)
tdm.df1 <- tibble(word = names(tdm.rs), freq = tdm.rs)
tdm.df1

[1] "data"        "forecast"    "forecasting" "potential"   "production" 
$gupta2017.pdf
       data    forecast  production   potential forecasting   technical 
         77          68          68          52          51          47 

# A tibble: 1,823 x 2
          word  freq
         <chr> <dbl>
 1        data    77
 2    forecast    68
 3  production    68
 4   potential    52
 5 forecasting    51
 6   technical    47
 7      fields    42
 8       model    41
 9        well    40
10       based    36
# ... with 1,813 more rows
…
tdm.matrix <- as.matrix(paper.tdm)
tdm.rs <- sort(rowSums(tdm.matrix), decreasing = TRUE)
tdm.df2 <- tibble(word = names(tdm.rs), freq = tdm.rs)
tdm.df2

character(0)
$ruslan2014.pdf
  reserves  potential  technical production       will      field 
        41         40         36         23         20         17 

# A tibble: 999 x 2
         word  freq
        <chr> <dbl>
 1   reserves    41
 2  potential    40
 3  technical    36
 4 production    23
 5       will    20
 6      field    17
 7     mature    16
 8 activities    15
 9 management    15
10  resources    15
# ... with 989 more rows
…
